<H1>Rental record for <EM>Teddy</EM></H1><P>
美國隊長: 2.0<BR>
功夫熊貓: 19.5<BR>
泰迪之夜: 15.0<BR>
羅馬假期: 3.5<BR>
小熊維尼: 1.5<BR>
法律女王: 3.0<BR>
<P>Amount owed is <EM>44.5</EM>
You earned <EM>7 </EM> frequent renter points <P>